\relax 
\citation{G2005}
\citation{Gilholm2005}
\citation{Granstroem2017}
\citation{Koch2008}
\citation{Granstrom2012}
\citation{GranstromNBLS:2015_TGARS}
\citation{GranstromFS:2016fusion}
\citation{Beard2016}
\citation{Feldmann2010}
\citation{Lan2016b}
\citation{J_TAES_Baum_RHM}
\citation{Fusion12_Faion-CylinderTracking}
\citation{Yang2017_ICASSP}
\@writefile{toc}{\contentsline {section}{\numberline {I}Introduction}{1}}
\newlabel{sec:intro}{{I}{1}}
\@writefile{lof}{\contentsline {figure}{\numberline {1}{\ignorespaces Extended object tracking and group tracking. Multiple spatially distributed measurements are received for one object/group. We are also interested to estimate the shape and size of the object/group besides its kinematic state.\relax }}{1}}
\providecommand*\caption@xref[2]{\@setref\relax\@undefined{#1}}
\newlabel{fig:EOT}{{1}{1}}
\@writefile{toc}{\contentsline {section}{\numberline {II}Problem Formulation}{1}}
\citation{Fusion12_Baum}
\citation{Feldmann2010}
\citation{Feldmann2010}
\citation{Lan2016b}
\@writefile{lof}{\contentsline {figure}{\numberline {2}{\ignorespaces  An illustration of our parameterization and measurement model. We omit the time index $k$ and measurement index $i$ in this figure. The location of the object is $\ensuremath  {{\boldsymbol  {{m}}}} = {\setbox \z@ \hbox {\frozen@everymath \@emptytoks \mathsurround \z@ $\nulldelimiterspace \z@ \left [\vcenter to\@ne \big@size {}\right .$}\box \z@ }m_{1},m_{2}{\setbox \z@ \hbox {\frozen@everymath \@emptytoks \mathsurround \z@ $\nulldelimiterspace \z@ \left ]\vcenter to\@ne \big@size {}\right .$}\box \z@ }^T$. The object shape is denoted as $\ensuremath  {{\boldsymbol  {{p}}}} = {\setbox \z@ \hbox {\frozen@everymath \@emptytoks \mathsurround \z@ $\nulldelimiterspace \z@ \left [\vcenter to\@ne \big@size {}\right .$}\box \z@ }\alpha , l_{1}, l_{2} {\setbox \z@ \hbox {\frozen@everymath \@emptytoks \mathsurround \z@ $\nulldelimiterspace \z@ \left ]\vcenter to\@ne \big@size {}\right .$}\box \z@ }^T$. The measurement $\ensuremath  {{\boldsymbol  {{y}}}}$ is measurement source $\ensuremath  {{\boldsymbol  {{z}}}}$ corrupted with measurement noise $\ensuremath  {{\boldsymbol  {{v}}}}$. The measurement source $\ensuremath  {{\boldsymbol  {{z}}}}$ is related to $\ensuremath  {{\boldsymbol  {{p}}}}$ using multiplicative noise $\ensuremath  {{\boldsymbol  {{h}}}}={\setbox \z@ \hbox {\frozen@everymath \@emptytoks \mathsurround \z@ $\nulldelimiterspace \z@ \left [\vcenter to\@ne \big@size {}\right .$}\box \z@ }h_1,h_2{\setbox \z@ \hbox {\frozen@everymath \@emptytoks \mathsurround \z@ $\nulldelimiterspace \z@ \left ]\vcenter to\@ne \big@size {}\right .$}\box \z@ }^T$. By anticlockwise rotating coordinates system $x$-$y$ through an angle of $\alpha $, we have the depicted ellipse is axes-aligned in reference frame $x_R$-$y_R$.\relax }}{2}}
\newlabel{fig:ellipse_par}{{2}{2}}
\@writefile{toc}{\contentsline {subsection}{\numberline {\unhbox \voidb@x \hbox {II-A}}Paratermization}{2}}
\newlabel{eq:param}{{3}{2}}
\@writefile{toc}{\contentsline {subsection}{\numberline {\unhbox \voidb@x \hbox {II-B}}Measurement Model}{2}}
\newlabel{eq:axes_align}{{4}{2}}
\newlabel{eq:non_axes_align}{{5}{2}}
\newlabel{eq:meas_kinematic}{{6}{2}}
\newlabel{eq:MEMlikelihood}{{8}{2}}
\newlabel{eq:RMMlikelihood}{{9}{2}}
\@writefile{toc}{\contentsline {subsection}{\numberline {\unhbox \voidb@x \hbox {II-C}}Dynamic Model}{2}}
\newlabel{eq:dyn_shape}{{11}{2}}
\citation{Feldmann2010}
\citation{Isserlis1918}
\citation{Wick1950}
\@writefile{toc}{\contentsline {section}{\numberline {III}Estimation}{3}}
\newlabel{sec:format}{{III}{3}}
\@writefile{toc}{\contentsline {subsection}{\numberline {\unhbox \voidb@x \hbox {III-A}}Measurement Update}{3}}
\@writefile{toc}{\contentsline {subsubsection}{\numberline {\unhbox \voidb@x \hbox {III-A}1}Kinematic State Update}{3}}
\newlabel{eq:meas_mean}{{12}{3}}
\newlabel{eq:exp_mean_meas}{{14}{3}}
\newlabel{eq:cross_cov_mean_meas}{{14}{3}}
\newlabel{eq:cov_mean_meas}{{15}{3}}
\newlabel{eq:exp_mean_meas}{{16}{3}}
\newlabel{eq:cross_cov_mean_meas}{{16}{3}}
\@writefile{toc}{\contentsline {subsubsection}{\numberline {\unhbox \voidb@x \hbox {III-A}2}Shape Variables Update}{3}}
\newlabel{eq:pseudo_meas}{{20}{3}}
\newlabel{eq:meas_cov_exp}{{22}{3}}
\newlabel{eq:pseudo_exp}{{24}{3}}
\expandafter \gdef \csname pgfplots@labelstyle@fig:static_meas_meas_noise_0\endcsname {color={magenta},solid={\pgfkeysnovalue },line width={2.0pt}}
\expandafter \gdef \csname pgfplots@show@ref@fig:static_meas_meas_noise_0\endcsname {\begingroup \def \pgfplots@draw@image {\def \tikz@plot@handler {\def \pgf@plotstreamstart {\global \let \pgf@plotstreampoint =\pgf@plot@line@handler \global \let \pgf@plotstreamspecial =\pgfutil@gobble \global \let \pgf@plotstreamend =\relax }\begingroup \escapechar =-1 \edef \pgfplotsplothandlername {\string \pgfplothandlerlineto }\pgfmath@smuggleone \pgfplotsplothandlername \endgroup \def \pgfplotsplothandlerLUAfactory {function(axis, pointmetainputhandler) return pgfplots.GenericPlothandler.new("\pgfplotsplothandlername ", axis,pointmetainputhandler) end}\def \pgfplotsplothandlerLUAvisualizerfactory {pgfplots.defaultPlotVisualizerFactory}}\pgfkeysdef {/pgfplots/legend image code}{\draw [/pgfplots/mesh=false,bar width=3pt,bar shift=0pt,mark repeat=2,mark phase=2,] plot coordinates { (0cm,0cm) (0.3cm,0cm) (0.6cm,0cm)};}\pgfkeysdef {/pgfplots/every legend image post}{}\pgfkeyssetvalue {/pgfplots/mark list fill}{.!80!black}\pgfkeysdef {/pgfplots/every crossref picture}{\pgfkeysalso {baseline,yshift=0.3em}}\pgfplots@show@small@legendplots {color={magenta},solid={\pgfkeysnovalue },line width={2.0pt}}{}}\ifpgfpicture \scope [/pgfplots/every crossref picture]\pgfplots@draw@image \endscope \else \expandafter \ifx \csname tikzappendtofigurename\endcsname \relax \else \begingroup \tikzappendtofigurename {_crossref}\fi \tikz [/pgfplots/every crossref picture]{\pgfplots@draw@image }\expandafter \ifx \csname tikzappendtofigurename\endcsname \relax \else \endgroup \fi \fi \endgroup }
\expandafter \gdef \csname pgfplots@labelstyle@fig:static_meas_meas_noise_2\endcsname {color={magenta},solid={\pgfkeysnovalue },line width={2.0pt}}
\expandafter \gdef \csname pgfplots@show@ref@fig:static_meas_meas_noise_2\endcsname {\begingroup \def \pgfplots@draw@image {\def \tikz@plot@handler {\def \pgf@plotstreamstart {\global \let \pgf@plotstreampoint =\pgf@plot@line@handler \global \let \pgf@plotstreamspecial =\pgfutil@gobble \global \let \pgf@plotstreamend =\relax }\begingroup \escapechar =-1 \edef \pgfplotsplothandlername {\string \pgfplothandlerlineto }\pgfmath@smuggleone \pgfplotsplothandlername \endgroup \def \pgfplotsplothandlerLUAfactory {function(axis, pointmetainputhandler) return pgfplots.GenericPlothandler.new("\pgfplotsplothandlername ", axis,pointmetainputhandler) end}\def \pgfplotsplothandlerLUAvisualizerfactory {pgfplots.defaultPlotVisualizerFactory}}\pgfkeysdef {/pgfplots/legend image code}{\draw [/pgfplots/mesh=false,bar width=3pt,bar shift=0pt,mark repeat=2,mark phase=2,] plot coordinates { (0cm,0cm) (0.3cm,0cm) (0.6cm,0cm)};}\pgfkeysdef {/pgfplots/every legend image post}{}\pgfkeyssetvalue {/pgfplots/mark list fill}{.!80!black}\pgfkeysdef {/pgfplots/every crossref picture}{\pgfkeysalso {baseline,yshift=0.3em}}\pgfplots@show@small@legendplots {color={magenta},solid={\pgfkeysnovalue },line width={2.0pt}}{}}\ifpgfpicture \scope [/pgfplots/every crossref picture]\pgfplots@draw@image \endscope \else \expandafter \ifx \csname tikzappendtofigurename\endcsname \relax \else \begingroup \tikzappendtofigurename {_crossref}\fi \tikz [/pgfplots/every crossref picture]{\pgfplots@draw@image }\expandafter \ifx \csname tikzappendtofigurename\endcsname \relax \else \endgroup \fi \fi \endgroup }
\expandafter \gdef \csname pgfplots@labelstyle@fig:static_state_meas_noise_0\endcsname {color={blue},solid={\pgfkeysnovalue }}
\expandafter \gdef \csname pgfplots@show@ref@fig:static_state_meas_noise_0\endcsname {\begingroup \def \pgfplots@draw@image {\def \tikz@plot@handler {\def \pgf@plotstreamstart {\global \let \pgf@plotstreampoint =\pgf@plot@line@handler \global \let \pgf@plotstreamspecial =\pgfutil@gobble \global \let \pgf@plotstreamend =\relax }\begingroup \escapechar =-1 \edef \pgfplotsplothandlername {\string \pgfplothandlerlineto }\pgfmath@smuggleone \pgfplotsplothandlername \endgroup \def \pgfplotsplothandlerLUAfactory {function(axis, pointmetainputhandler) return pgfplots.GenericPlothandler.new("\pgfplotsplothandlername ", axis,pointmetainputhandler) end}\def \pgfplotsplothandlerLUAvisualizerfactory {pgfplots.defaultPlotVisualizerFactory}}\pgfkeysdef {/pgfplots/legend image code}{\draw [/pgfplots/mesh=false,bar width=3pt,bar shift=0pt,mark repeat=2,mark phase=2,] plot coordinates { (0cm,0cm) (0.3cm,0cm) (0.6cm,0cm)};}\pgfkeysdef {/pgfplots/every legend image post}{}\pgfkeyssetvalue {/pgfplots/mark list fill}{.!80!black}\pgfkeysdef {/pgfplots/every crossref picture}{\pgfkeysalso {baseline,yshift=0.3em}}\pgfplots@show@small@legendplots {color={blue},solid={\pgfkeysnovalue }}{}}\ifpgfpicture \scope [/pgfplots/every crossref picture]\pgfplots@draw@image \endscope \else \expandafter \ifx \csname tikzappendtofigurename\endcsname \relax \else \begingroup \tikzappendtofigurename {_crossref}\fi \tikz [/pgfplots/every crossref picture]{\pgfplots@draw@image }\expandafter \ifx \csname tikzappendtofigurename\endcsname \relax \else \endgroup \fi \fi \endgroup }
\expandafter \gdef \csname pgfplots@labelstyle@fig:static_state_meas_noise_1\endcsname {color={blue},solid={\pgfkeysnovalue }}
\expandafter \gdef \csname pgfplots@show@ref@fig:static_state_meas_noise_1\endcsname {\begingroup \def \pgfplots@draw@image {\def \tikz@plot@handler {\def \pgf@plotstreamstart {\global \let \pgf@plotstreampoint =\pgf@plot@line@handler \global \let \pgf@plotstreamspecial =\pgfutil@gobble \global \let \pgf@plotstreamend =\relax }\begingroup \escapechar =-1 \edef \pgfplotsplothandlername {\string \pgfplothandlerlineto }\pgfmath@smuggleone \pgfplotsplothandlername \endgroup \def \pgfplotsplothandlerLUAfactory {function(axis, pointmetainputhandler) return pgfplots.GenericPlothandler.new("\pgfplotsplothandlername ", axis,pointmetainputhandler) end}\def \pgfplotsplothandlerLUAvisualizerfactory {pgfplots.defaultPlotVisualizerFactory}}\pgfkeysdef {/pgfplots/legend image code}{\draw [/pgfplots/mesh=false,bar width=3pt,bar shift=0pt,mark repeat=2,mark phase=2,] plot coordinates { (0cm,0cm) (0.3cm,0cm) (0.6cm,0cm)};}\pgfkeysdef {/pgfplots/every legend image post}{}\pgfkeyssetvalue {/pgfplots/mark list fill}{.!80!black}\pgfkeysdef {/pgfplots/every crossref picture}{\pgfkeysalso {baseline,yshift=0.3em}}\pgfplots@show@small@legendplots {color={blue},solid={\pgfkeysnovalue }}{}}\ifpgfpicture \scope [/pgfplots/every crossref picture]\pgfplots@draw@image \endscope \else \expandafter \ifx \csname tikzappendtofigurename\endcsname \relax \else \begingroup \tikzappendtofigurename {_crossref}\fi \tikz [/pgfplots/every crossref picture]{\pgfplots@draw@image }\expandafter \ifx \csname tikzappendtofigurename\endcsname \relax \else \endgroup \fi \fi \endgroup }
\expandafter \gdef \csname pgfplots@legend@to@name@onerun_legend\endcsname {\begingroup \def \pgfplots@legend@to@name {\pgfkeysdef {/pgfplots/every axis legend}{\pgfkeysalso {cells={anchor=center},inner xsep={3pt},inner ysep={2pt},nodes={inner sep=2pt,text depth=0.15em},anchor={north east},shape={rectangle},fill={white},draw={black},at={(0.98,0.98)},font={\small },column sep={1pt}}}\pgfkeysdef {/pgfplots/every legend image post}{}\def \numplots {5}\def \plotnum {0}\def \plotnumofactualtype {0}\matrix [/pgfplots/every axis legend]{\begingroup \def \pgfplots@draw@image {\def \tikz@plot@handler {\def \pgf@plotstreamstart {\global \let \pgf@plotstreampoint =\pgf@plot@line@handler \global \let \pgf@plotstreamspecial =\pgfutil@gobble \global \let \pgf@plotstreamend =\relax }\begingroup \escapechar =-1 \edef \pgfplotsplothandlername {\string \pgfplothandlerlineto }\pgfmath@smuggleone \pgfplotsplothandlername \endgroup \def \pgfplotsplothandlerLUAfactory {function(axis, pointmetainputhandler) return pgfplots.GenericPlothandler.new("\pgfplotsplothandlername ", axis,pointmetainputhandler) end}\def \pgfplotsplothandlerLUAvisualizerfactory {pgfplots.defaultPlotVisualizerFactory}}\pgfkeysdef {/pgfplots/legend image code}{\draw [/pgfplots/mesh=false,bar width=3pt,bar shift=0pt,mark repeat=2,mark phase=2,] plot coordinates { (0cm,0cm) (0.3cm,0cm) (0.6cm,0cm)};}\pgfkeysdef {/pgfplots/every legend image post}{}\pgfkeyssetvalue {/pgfplots/mark list fill}{.!80!black}\pgfplots@show@small@legendplots {color={black},only marks={},mark={*},mark options={solid}}{}}\ifpgfpicture \pgfplots@draw@image \else \expandafter \ifx \csname tikzappendtofigurename\endcsname \relax \else \begingroup \tikzappendtofigurename {_crossref}\fi \tikz []{\pgfplots@draw@image }\expandafter \ifx \csname tikzappendtofigurename\endcsname \relax \else \endgroup \fi \fi \endgroup \pgfmatrixnextcell \node []{Measurement};\pgfmatrixnextcell \begingroup \def \pgfplots@draw@image {\def \tikz@plot@handler {\def \pgf@plotstreamstart {\global \let \pgf@plotstreampoint =\pgf@plot@line@handler \global \let \pgf@plotstreamspecial =\pgfutil@gobble \global \let \pgf@plotstreamend =\relax }\begingroup \escapechar =-1 \edef \pgfplotsplothandlername {\string \pgfplothandlerlineto }\pgfmath@smuggleone \pgfplotsplothandlername \endgroup \def \pgfplotsplothandlerLUAfactory {function(axis, pointmetainputhandler) return pgfplots.GenericPlothandler.new("\pgfplotsplothandlername ", axis,pointmetainputhandler) end}\def \pgfplotsplothandlerLUAvisualizerfactory {pgfplots.defaultPlotVisualizerFactory}}\pgfkeysdef {/pgfplots/legend image code}{\draw [/pgfplots/mesh=false,bar width=3pt,bar shift=0pt,mark repeat=2,mark phase=2,] plot coordinates { (0cm,0cm) (0.3cm,0cm) (0.6cm,0cm)};}\pgfkeysdef {/pgfplots/every legend image post}{}\pgfkeyssetvalue {/pgfplots/mark list fill}{.!80!black}\pgfplots@show@small@legendplots {color={black},solid={\pgfkeysnovalue },line width={0.5pt}}{}}\ifpgfpicture \pgfplots@draw@image \else \expandafter \ifx \csname tikzappendtofigurename\endcsname \relax \else \begingroup \tikzappendtofigurename {_crossref}\fi \tikz []{\pgfplots@draw@image }\expandafter \ifx \csname tikzappendtofigurename\endcsname \relax \else \endgroup \fi \fi \endgroup \pgfmatrixnextcell \node []{Ground Truth};\pgfmatrixnextcell \begingroup \def \pgfplots@draw@image {\def \tikz@plot@handler {\def \pgf@plotstreamstart {\global \let \pgf@plotstreampoint =\pgf@plot@line@handler \global \let \pgf@plotstreamspecial =\pgfutil@gobble \global \let \pgf@plotstreamend =\relax }\begingroup \escapechar =-1 \edef \pgfplotsplothandlername {\string \pgfplothandlerlineto }\pgfmath@smuggleone \pgfplotsplothandlername \endgroup \def \pgfplotsplothandlerLUAfactory {function(axis, pointmetainputhandler) return pgfplots.GenericPlothandler.new("\pgfplotsplothandlername ", axis,pointmetainputhandler) end}\def \pgfplotsplothandlerLUAvisualizerfactory {pgfplots.defaultPlotVisualizerFactory}}\pgfkeysdef {/pgfplots/legend image code}{\draw [/pgfplots/mesh=false,bar width=3pt,bar shift=0pt,mark repeat=2,mark phase=2,] plot coordinates { (0cm,0cm) (0.3cm,0cm) (0.6cm,0cm)};}\pgfkeysdef {/pgfplots/every legend image post}{}\pgfkeyssetvalue {/pgfplots/mark list fill}{.!80!black}\pgfplots@show@small@legendplots {color={green},solid={\pgfkeysnovalue },line width={0.5pt}}{}}\ifpgfpicture \pgfplots@draw@image \else \expandafter \ifx \csname tikzappendtofigurename\endcsname \relax \else \begingroup \tikzappendtofigurename {_crossref}\fi \tikz []{\pgfplots@draw@image }\expandafter \ifx \csname tikzappendtofigurename\endcsname \relax \else \endgroup \fi \fi \endgroup \pgfmatrixnextcell \node []{Feldmann \etal };\pgfmatrixnextcell \begingroup \def \pgfplots@draw@image {\def \tikz@plot@handler {\def \pgf@plotstreamstart {\global \let \pgf@plotstreampoint =\pgf@plot@line@handler \global \let \pgf@plotstreamspecial =\pgfutil@gobble \global \let \pgf@plotstreamend =\relax }\begingroup \escapechar =-1 \edef \pgfplotsplothandlername {\string \pgfplothandlerlineto }\pgfmath@smuggleone \pgfplotsplothandlername \endgroup \def \pgfplotsplothandlerLUAfactory {function(axis, pointmetainputhandler) return pgfplots.GenericPlothandler.new("\pgfplotsplothandlername ", axis,pointmetainputhandler) end}\def \pgfplotsplothandlerLUAvisualizerfactory {pgfplots.defaultPlotVisualizerFactory}}\pgfkeysdef {/pgfplots/legend image code}{\draw [/pgfplots/mesh=false,bar width=3pt,bar shift=0pt,mark repeat=2,mark phase=2,] plot coordinates { (0cm,0cm) (0.3cm,0cm) (0.6cm,0cm)};}\pgfkeysdef {/pgfplots/every legend image post}{}\pgfkeyssetvalue {/pgfplots/mark list fill}{.!80!black}\pgfplots@show@small@legendplots {color={blue},solid={\pgfkeysnovalue },line width={0.5pt}}{}}\ifpgfpicture \pgfplots@draw@image \else \expandafter \ifx \csname tikzappendtofigurename\endcsname \relax \else \begingroup \tikzappendtofigurename {_crossref}\fi \tikz []{\pgfplots@draw@image }\expandafter \ifx \csname tikzappendtofigurename\endcsname \relax \else \endgroup \fi \fi \endgroup \pgfmatrixnextcell \node []{Lan \etal };\pgfmatrixnextcell \begingroup \def \pgfplots@draw@image {\def \tikz@plot@handler {\def \pgf@plotstreamstart {\global \let \pgf@plotstreampoint =\pgf@plot@line@handler \global \let \pgf@plotstreamspecial =\pgfutil@gobble \global \let \pgf@plotstreamend =\relax }\begingroup \escapechar =-1 \edef \pgfplotsplothandlername {\string \pgfplothandlerlineto }\pgfmath@smuggleone \pgfplotsplothandlername \endgroup \def \pgfplotsplothandlerLUAfactory {function(axis, pointmetainputhandler) return pgfplots.GenericPlothandler.new("\pgfplotsplothandlername ", axis,pointmetainputhandler) end}\def \pgfplotsplothandlerLUAvisualizerfactory {pgfplots.defaultPlotVisualizerFactory}}\pgfkeysdef {/pgfplots/legend image code}{\draw [/pgfplots/mesh=false,bar width=3pt,bar shift=0pt,mark repeat=2,mark phase=2,] plot coordinates { (0cm,0cm) (0.3cm,0cm) (0.6cm,0cm)};}\pgfkeysdef {/pgfplots/every legend image post}{}\pgfkeyssetvalue {/pgfplots/mark list fill}{.!80!black}\pgfplots@show@small@legendplots {color={mycolor1},solid={\pgfkeysnovalue },line width={0.5pt}}{}}\ifpgfpicture \pgfplots@draw@image \else \expandafter \ifx \csname tikzappendtofigurename\endcsname \relax \else \begingroup \tikzappendtofigurename {_crossref}\fi \tikz []{\pgfplots@draw@image }\expandafter \ifx \csname tikzappendtofigurename\endcsname \relax \else \endgroup \fi \fi \endgroup \pgfmatrixnextcell \node []{Our};\\};}\ifpgfpicture \pgfplots@legend@to@name \else \expandafter \ifx \csname tikzappendtofigurename\endcsname \relax \else \begingroup \tikzappendtofigurename {_crossref}\fi \tikz [/pgfplots/every legend to name picture/.try]{\pgfplots@legend@to@name }\expandafter \ifx \csname tikzappendtofigurename\endcsname \relax \else \endgroup \fi \fi \endgroup }
\expandafter \gdef \csname pgfplots@legend@to@name@subs_legend\endcsname {\begingroup \def \pgfplots@legend@to@name {\pgfkeysdef {/pgfplots/every axis legend}{\pgfkeysalso {cells={anchor=center},inner xsep={3pt},inner ysep={2pt},nodes={inner sep=2pt,text depth=0.15em},anchor={north east},shape={rectangle},fill={white},draw={black},at={(0.98,0.98)},font={\small },column sep={1pt}}}\pgfkeysdef {/pgfplots/every legend image post}{}\def \numplots {3}\def \plotnum {0}\def \plotnumofactualtype {0}\matrix [/pgfplots/every axis legend]{\begingroup \def \pgfplots@draw@image {\def \tikz@plot@handler {\def \pgf@plotstreamstart {\global \let \pgf@plotstreampoint =\pgf@plot@line@handler \global \let \pgf@plotstreamspecial =\pgfutil@gobble \global \let \pgf@plotstreamend =\relax }\begingroup \escapechar =-1 \edef \pgfplotsplothandlername {\string \pgfplothandlerlineto }\pgfmath@smuggleone \pgfplotsplothandlername \endgroup \def \pgfplotsplothandlerLUAfactory {function(axis, pointmetainputhandler) return pgfplots.GenericPlothandler.new("\pgfplotsplothandlername ", axis,pointmetainputhandler) end}\def \pgfplotsplothandlerLUAvisualizerfactory {pgfplots.defaultPlotVisualizerFactory}}\pgfkeysdef {/pgfplots/legend image code}{\draw [/pgfplots/mesh=false,bar width=3pt,bar shift=0pt,mark repeat=2,mark phase=2,] plot coordinates { (0cm,0cm) (0.3cm,0cm) (0.6cm,0cm)};}\pgfkeysdef {/pgfplots/every legend image post}{}\pgfkeyssetvalue {/pgfplots/mark list fill}{.!80!black}\pgfplots@show@small@legendplots {color={green},solid={\pgfkeysnovalue },mark={square},mark repeat={5},mark phase={1},mark size={1.5}}{}}\ifpgfpicture \pgfplots@draw@image \else \expandafter \ifx \csname tikzappendtofigurename\endcsname \relax \else \begingroup \tikzappendtofigurename {_crossref}\fi \tikz []{\pgfplots@draw@image }\expandafter \ifx \csname tikzappendtofigurename\endcsname \relax \else \endgroup \fi \fi \endgroup \pgfmatrixnextcell \node []{Feldmann \etal };\pgfmatrixnextcell \begingroup \def \pgfplots@draw@image {\def \tikz@plot@handler {\def \pgf@plotstreamstart {\global \let \pgf@plotstreampoint =\pgf@plot@line@handler \global \let \pgf@plotstreamspecial =\pgfutil@gobble \global \let \pgf@plotstreamend =\relax }\begingroup \escapechar =-1 \edef \pgfplotsplothandlername {\string \pgfplothandlerlineto }\pgfmath@smuggleone \pgfplotsplothandlername \endgroup \def \pgfplotsplothandlerLUAfactory {function(axis, pointmetainputhandler) return pgfplots.GenericPlothandler.new("\pgfplotsplothandlername ", axis,pointmetainputhandler) end}\def \pgfplotsplothandlerLUAvisualizerfactory {pgfplots.defaultPlotVisualizerFactory}}\pgfkeysdef {/pgfplots/legend image code}{\draw [/pgfplots/mesh=false,bar width=3pt,bar shift=0pt,mark repeat=2,mark phase=2,] plot coordinates { (0cm,0cm) (0.3cm,0cm) (0.6cm,0cm)};}\pgfkeysdef {/pgfplots/every legend image post}{}\pgfkeyssetvalue {/pgfplots/mark list fill}{.!80!black}\pgfplots@show@small@legendplots {color={blue},solid={\pgfkeysnovalue },mark={o},mark repeat={8},mark phase={1},mark size={1},solid={\pgfkeysnovalue }}{}}\ifpgfpicture \pgfplots@draw@image \else \expandafter \ifx \csname tikzappendtofigurename\endcsname \relax \else \begingroup \tikzappendtofigurename {_crossref}\fi \tikz []{\pgfplots@draw@image }\expandafter \ifx \csname tikzappendtofigurename\endcsname \relax \else \endgroup \fi \fi \endgroup \pgfmatrixnextcell \node []{Lan \etal };\pgfmatrixnextcell \begingroup \def \pgfplots@draw@image {\def \tikz@plot@handler {\def \pgf@plotstreamstart {\global \let \pgf@plotstreampoint =\pgf@plot@line@handler \global \let \pgf@plotstreamspecial =\pgfutil@gobble \global \let \pgf@plotstreamend =\relax }\begingroup \escapechar =-1 \edef \pgfplotsplothandlername {\string \pgfplothandlerlineto }\pgfmath@smuggleone \pgfplotsplothandlername \endgroup \def \pgfplotsplothandlerLUAfactory {function(axis, pointmetainputhandler) return pgfplots.GenericPlothandler.new("\pgfplotsplothandlername ", axis,pointmetainputhandler) end}\def \pgfplotsplothandlerLUAvisualizerfactory {pgfplots.defaultPlotVisualizerFactory}}\pgfkeysdef {/pgfplots/legend image code}{\draw [/pgfplots/mesh=false,bar width=3pt,bar shift=0pt,mark repeat=2,mark phase=2,] plot coordinates { (0cm,0cm) (0.3cm,0cm) (0.6cm,0cm)};}\pgfkeysdef {/pgfplots/every legend image post}{}\pgfkeyssetvalue {/pgfplots/mark list fill}{.!80!black}\pgfplots@show@small@legendplots {color={magenta},mark={*},mark repeat={8},mark phase={1},mark size={1},dashed={\pgfkeysnovalue }}{}}\ifpgfpicture \pgfplots@draw@image \else \expandafter \ifx \csname tikzappendtofigurename\endcsname \relax \else \begingroup \tikzappendtofigurename {_crossref}\fi \tikz []{\pgfplots@draw@image }\expandafter \ifx \csname tikzappendtofigurename\endcsname \relax \else \endgroup \fi \fi \endgroup \pgfmatrixnextcell \node []{Our};\\};}\ifpgfpicture \pgfplots@legend@to@name \else \expandafter \ifx \csname tikzappendtofigurename\endcsname \relax \else \begingroup \tikzappendtofigurename {_crossref}\fi \tikz [/pgfplots/every legend to name picture/.try]{\pgfplots@legend@to@name }\expandafter \ifx \csname tikzappendtofigurename\endcsname \relax \else \endgroup \fi \fi \endgroup }
\expandafter \gdef \csname pgfplots@legend@to@name@subs_legend\endcsname {\begingroup \def \pgfplots@legend@to@name {\pgfkeysdef {/pgfplots/every axis legend}{\pgfkeysalso {cells={anchor=center},inner xsep={3pt},inner ysep={2pt},nodes={inner sep=2pt,text depth=0.15em},anchor={north east},shape={rectangle},fill={white},draw={black},at={(0.98,0.98)},font={\small },column sep={1pt}}}\pgfkeysdef {/pgfplots/every legend image post}{}\def \numplots {3}\def \plotnum {0}\def \plotnumofactualtype {0}\matrix [/pgfplots/every axis legend]{\begingroup \def \pgfplots@draw@image {\def \tikz@plot@handler {\def \pgf@plotstreamstart {\global \let \pgf@plotstreampoint =\pgf@plot@line@handler \global \let \pgf@plotstreamspecial =\pgfutil@gobble \global \let \pgf@plotstreamend =\relax }\begingroup \escapechar =-1 \edef \pgfplotsplothandlername {\string \pgfplothandlerlineto }\pgfmath@smuggleone \pgfplotsplothandlername \endgroup \def \pgfplotsplothandlerLUAfactory {function(axis, pointmetainputhandler) return pgfplots.GenericPlothandler.new("\pgfplotsplothandlername ", axis,pointmetainputhandler) end}\def \pgfplotsplothandlerLUAvisualizerfactory {pgfplots.defaultPlotVisualizerFactory}}\pgfkeysdef {/pgfplots/legend image code}{\draw [/pgfplots/mesh=false,bar width=3pt,bar shift=0pt,mark repeat=2,mark phase=2,] plot coordinates { (0cm,0cm) (0.3cm,0cm) (0.6cm,0cm)};}\pgfkeysdef {/pgfplots/every legend image post}{}\pgfkeyssetvalue {/pgfplots/mark list fill}{.!80!black}\pgfplots@show@small@legendplots {color={green},solid={\pgfkeysnovalue },mark={square},mark repeat={5},mark phase={1},mark size={1.5}}{}}\ifpgfpicture \pgfplots@draw@image \else \expandafter \ifx \csname tikzappendtofigurename\endcsname \relax \else \begingroup \tikzappendtofigurename {_crossref}\fi \tikz []{\pgfplots@draw@image }\expandafter \ifx \csname tikzappendtofigurename\endcsname \relax \else \endgroup \fi \fi \endgroup \pgfmatrixnextcell \node []{Feldmann \etal };\pgfmatrixnextcell \begingroup \def \pgfplots@draw@image {\def \tikz@plot@handler {\def \pgf@plotstreamstart {\global \let \pgf@plotstreampoint =\pgf@plot@line@handler \global \let \pgf@plotstreamspecial =\pgfutil@gobble \global \let \pgf@plotstreamend =\relax }\begingroup \escapechar =-1 \edef \pgfplotsplothandlername {\string \pgfplothandlerlineto }\pgfmath@smuggleone \pgfplotsplothandlername \endgroup \def \pgfplotsplothandlerLUAfactory {function(axis, pointmetainputhandler) return pgfplots.GenericPlothandler.new("\pgfplotsplothandlername ", axis,pointmetainputhandler) end}\def \pgfplotsplothandlerLUAvisualizerfactory {pgfplots.defaultPlotVisualizerFactory}}\pgfkeysdef {/pgfplots/legend image code}{\draw [/pgfplots/mesh=false,bar width=3pt,bar shift=0pt,mark repeat=2,mark phase=2,] plot coordinates { (0cm,0cm) (0.3cm,0cm) (0.6cm,0cm)};}\pgfkeysdef {/pgfplots/every legend image post}{}\pgfkeyssetvalue {/pgfplots/mark list fill}{.!80!black}\pgfplots@show@small@legendplots {color={blue},solid={\pgfkeysnovalue },mark={o},mark repeat={8},mark phase={1},mark size={1},solid={\pgfkeysnovalue }}{}}\ifpgfpicture \pgfplots@draw@image \else \expandafter \ifx \csname tikzappendtofigurename\endcsname \relax \else \begingroup \tikzappendtofigurename {_crossref}\fi \tikz []{\pgfplots@draw@image }\expandafter \ifx \csname tikzappendtofigurename\endcsname \relax \else \endgroup \fi \fi \endgroup \pgfmatrixnextcell \node []{Lan \etal };\pgfmatrixnextcell \begingroup \def \pgfplots@draw@image {\def \tikz@plot@handler {\def \pgf@plotstreamstart {\global \let \pgf@plotstreampoint =\pgf@plot@line@handler \global \let \pgf@plotstreamspecial =\pgfutil@gobble \global \let \pgf@plotstreamend =\relax }\begingroup \escapechar =-1 \edef \pgfplotsplothandlername {\string \pgfplothandlerlineto }\pgfmath@smuggleone \pgfplotsplothandlername \endgroup \def \pgfplotsplothandlerLUAfactory {function(axis, pointmetainputhandler) return pgfplots.GenericPlothandler.new("\pgfplotsplothandlername ", axis,pointmetainputhandler) end}\def \pgfplotsplothandlerLUAvisualizerfactory {pgfplots.defaultPlotVisualizerFactory}}\pgfkeysdef {/pgfplots/legend image code}{\draw [/pgfplots/mesh=false,bar width=3pt,bar shift=0pt,mark repeat=2,mark phase=2,] plot coordinates { (0cm,0cm) (0.3cm,0cm) (0.6cm,0cm)};}\pgfkeysdef {/pgfplots/every legend image post}{}\pgfkeyssetvalue {/pgfplots/mark list fill}{.!80!black}\pgfplots@show@small@legendplots {color={red},mark={*},mark repeat={8},mark phase={1},mark size={1},dashed={\pgfkeysnovalue }}{}}\ifpgfpicture \pgfplots@draw@image \else \expandafter \ifx \csname tikzappendtofigurename\endcsname \relax \else \begingroup \tikzappendtofigurename {_crossref}\fi \tikz []{\pgfplots@draw@image }\expandafter \ifx \csname tikzappendtofigurename\endcsname \relax \else \endgroup \fi \fi \endgroup \pgfmatrixnextcell \node []{MEM};\\};}\ifpgfpicture \pgfplots@legend@to@name \else \expandafter \ifx \csname tikzappendtofigurename\endcsname \relax \else \begingroup \tikzappendtofigurename {_crossref}\fi \tikz [/pgfplots/every legend to name picture/.try]{\pgfplots@legend@to@name }\expandafter \ifx \csname tikzappendtofigurename\endcsname \relax \else \endgroup \fi \fi \endgroup }
\citation{Koch2008}
\citation{Feldmann2010}
\citation{Lan2016b}
\citation{Feldmann2010}
\citation{Lan2016b}
\citation{Feldmann2010}
\citation{Lan2016b}
\newlabel{eq:pseudo_cov}{{32}{4}}
\newlabel{eq:matrixM}{{35}{4}}
\newlabel{eq:linearization}{{36}{4}}
\newlabel{eq:pseudo_cross_cov}{{37}{4}}
\@writefile{toc}{\contentsline {subsection}{\numberline {\unhbox \voidb@x \hbox {III-B}}Time Update}{4}}
\@writefile{lot}{\contentsline {table}{\numberline {I}{\ignorespaces Measurement Update\relax }}{4}}
\newlabel{tab:MEMupdate}{{I}{4}}
\@writefile{toc}{\contentsline {section}{\numberline {IV}Simulation}{4}}
\@writefile{toc}{\contentsline {subsection}{\numberline {\unhbox \voidb@x \hbox {IV-A}}Metrics}{4}}
\citation{MFI}
\citation{Hoffman2002}
\citation{Villani2009}
\citation{Pele2009}
\citation{Rubner2000}
\citation{Zen2011}
\citation{Levina2011}
\citation{Givens1984}
\newlabel{fig:static_meas_meas_noise_0}{{\expandafter\protect\csname pgfplots@show@ref@fig:static_meas_meas_noise_0\endcsname}{5}}
\newlabel{fig:static_meas_meas_noise_2}{{\expandafter\protect\csname pgfplots@show@ref@fig:static_meas_meas_noise_2\endcsname}{5}}
\newlabel{fig:static_state_meas_noise_0}{{\expandafter\protect\csname pgfplots@show@ref@fig:static_state_meas_noise_0\endcsname}{5}}
\newlabel{fig:static_state_meas_noise_1}{{\expandafter\protect\csname pgfplots@show@ref@fig:static_state_meas_noise_1\endcsname}{5}}
\@writefile{lof}{\contentsline {figure}{\numberline {3}{\ignorespaces Simulation on static ellipse. The first row figures show the ground truth and measurements. The second row give example estimates after $100$ measurements update. The last row plot mean $\mathbf  {d}$ for $100$ runs.\relax }}{5}}
\newlabel{fig:static_ellipse_result}{{3}{5}}
\newlabel{eq:ext_diff_trace}{{44}{5}}
\newlabel{eq:gaussian_wasserstein_def}{{45}{5}}
\citation{Feldmann2010}
\citation{Lan2016b}
\citation{Lan2016b}
\newlabel{onerun_legend}{{\expandafter\protect\csname pgfplots@legend@to@name@onerun_legend\endcsname}{6}}
\newlabel{onerun_legend}{{\expandafter\protect\csname pgfplots@legend@to@name@onerun_legend\endcsname}{6}}
\newlabel{onerun_legend}{{\expandafter\protect\csname pgfplots@legend@to@name@onerun_legend\endcsname}{6}}
\newlabel{onerun_legend}{{\expandafter\protect\csname pgfplots@legend@to@name@onerun_legend\endcsname}{6}}
\newlabel{onerun_legend}{{\expandafter\protect\csname pgfplots@legend@to@name@onerun_legend\endcsname}{6}}
\@writefile{lof}{\contentsline {figure}{\numberline {4}{\ignorespaces The measurements, trajectory, and one exemplar run of the three estimators.\relax }}{6}}
\newlabel{fig:snippet}{{4}{6}}
\newlabel{subs_legend}{{\expandafter\protect\csname pgfplots@legend@to@name@subs_legend\endcsname}{6}}
\newlabel{subs_legend}{{\expandafter\protect\csname pgfplots@legend@to@name@subs_legend\endcsname}{6}}
\newlabel{fig:rmse_extent}{{5(a)}{6}}
\newlabel{sub@fig:rmse_extent}{{(a)}{6}}
\newlabel{fig:rmse_velo}{{5(b)}{6}}
\newlabel{sub@fig:rmse_velo}{{(b)}{6}}
\@writefile{lof}{\contentsline {figure}{\numberline {5}{\ignorespaces RMSEs for 1000 Monte Carlo runs. \relax }}{6}}
\newlabel{fig:plots}{{5}{6}}
\@writefile{toc}{\contentsline {subsection}{\numberline {\unhbox \voidb@x \hbox {IV-B}}Setting}{6}}
\citation{CalculusVarberg2007}
\@writefile{toc}{\contentsline {section}{\numberline {V}Conclusion}{7}}
\@writefile{toc}{\contentsline {section}{Appendix\nobreakspace  A: Proof}{7}}
\newlabel{app:var_ellip_uniform}{{A}{7}}
\@writefile{toc}{\contentsline {subsection}{\numberline {\unhbox \voidb@x \hbox {A-A}}Covariance of Elliptical Uniform distribution}{7}}
\newlabel{eq:integral}{{53}{7}}
\bibstyle{IEEEtran}
\bibdata{../../BibTex/Literature,../../BibTex/publicationsFusion.bib}
\bibcite{G2005}{1}
\bibcite{Gilholm2005}{2}
\bibcite{Granstroem2017}{3}
\bibcite{Koch2008}{4}
\bibcite{Granstrom2012}{5}
\bibcite{GranstromNBLS:2015_TGARS}{6}
\bibcite{GranstromFS:2016fusion}{7}
\bibcite{Beard2016}{8}
\bibcite{Feldmann2010}{9}
\bibcite{Lan2016b}{10}
\bibcite{J_TAES_Baum_RHM}{11}
\bibcite{Fusion12_Faion-CylinderTracking}{12}
\bibcite{Yang2017_ICASSP}{13}
\bibcite{Fusion12_Baum}{14}
\bibcite{Isserlis1918}{15}
\bibcite{Wick1950}{16}
\bibcite{Hoffman2002}{17}
\bibcite{Villani2009}{18}
\bibcite{Pele2009}{19}
\bibcite{Rubner2000}{20}
\bibcite{Zen2011}{21}
\@writefile{toc}{\contentsline {section}{Appendix\nobreakspace  B: Linearization of Pseudo-measurement Equation}{8}}
\newlabel{app:jacobian}{{B}{8}}
\newlabel{eq:pseudo_meas_nok}{{60}{8}}
\newlabel{eq:kin_jacobian}{{63}{8}}
\newlabel{eq:shape_jacobian}{{66}{8}}
\newlabel{eq:shape_jacobian}{{67}{8}}
\@writefile{toc}{\contentsline {section}{References}{8}}
\bibcite{Givens1984}{22}
\bibcite{CalculusVarberg2007}{23}
