\relax 
\expandafter \gdef \csname pgfplots@labelstyle@fig:static_meas_meas_noise_0\endcsname {color={magenta},solid={\pgfkeysnovalue },line width={2.0pt}}
\expandafter \gdef \csname pgfplots@show@ref@fig:static_meas_meas_noise_0\endcsname {\begingroup \def \pgfplots@draw@image {\def \tikz@plot@handler {\def \pgf@plotstreamstart {\global \let \pgf@plotstreampoint =\pgf@plot@line@handler \global \let \pgf@plotstreamspecial =\pgfutil@gobble \global \let \pgf@plotstreamend =\relax }\begingroup \escapechar =-1 \edef \pgfplotsplothandlername {\string \pgfplothandlerlineto }\pgfmath@smuggleone \pgfplotsplothandlername \endgroup \def \pgfplotsplothandlerLUAfactory {function(axis, pointmetainputhandler) return pgfplots.GenericPlothandler.new("\pgfplotsplothandlername ", axis,pointmetainputhandler) end}\def \pgfplotsplothandlerLUAvisualizerfactory {pgfplots.defaultPlotVisualizerFactory}}\pgfkeysdef {/pgfplots/legend image code}{\draw [/pgfplots/mesh=false,bar width=3pt,bar shift=0pt,mark repeat=2,mark phase=2,] plot coordinates { (0cm,0cm) (0.3cm,0cm) (0.6cm,0cm)};}\pgfkeysdef {/pgfplots/every legend image post}{}\pgfkeyssetvalue {/pgfplots/mark list fill}{.!80!black}\pgfkeysdef {/pgfplots/every crossref picture}{\pgfkeysalso {baseline,yshift=0.3em}}\pgfplots@show@small@legendplots {color={magenta},solid={\pgfkeysnovalue },line width={2.0pt}}{}}\ifpgfpicture \scope [/pgfplots/every crossref picture]\pgfplots@draw@image \endscope \else \expandafter \ifx \csname tikzappendtofigurename\endcsname \relax \else \begingroup \tikzappendtofigurename {_crossref}\fi \tikz [/pgfplots/every crossref picture]{\pgfplots@draw@image }\expandafter \ifx \csname tikzappendtofigurename\endcsname \relax \else \endgroup \fi \fi \endgroup }
\expandafter \gdef \csname pgfplots@labelstyle@fig:static_meas_meas_noise_2\endcsname {color={magenta},solid={\pgfkeysnovalue },line width={2.0pt}}
\expandafter \gdef \csname pgfplots@show@ref@fig:static_meas_meas_noise_2\endcsname {\begingroup \def \pgfplots@draw@image {\def \tikz@plot@handler {\def \pgf@plotstreamstart {\global \let \pgf@plotstreampoint =\pgf@plot@line@handler \global \let \pgf@plotstreamspecial =\pgfutil@gobble \global \let \pgf@plotstreamend =\relax }\begingroup \escapechar =-1 \edef \pgfplotsplothandlername {\string \pgfplothandlerlineto }\pgfmath@smuggleone \pgfplotsplothandlername \endgroup \def \pgfplotsplothandlerLUAfactory {function(axis, pointmetainputhandler) return pgfplots.GenericPlothandler.new("\pgfplotsplothandlername ", axis,pointmetainputhandler) end}\def \pgfplotsplothandlerLUAvisualizerfactory {pgfplots.defaultPlotVisualizerFactory}}\pgfkeysdef {/pgfplots/legend image code}{\draw [/pgfplots/mesh=false,bar width=3pt,bar shift=0pt,mark repeat=2,mark phase=2,] plot coordinates { (0cm,0cm) (0.3cm,0cm) (0.6cm,0cm)};}\pgfkeysdef {/pgfplots/every legend image post}{}\pgfkeyssetvalue {/pgfplots/mark list fill}{.!80!black}\pgfkeysdef {/pgfplots/every crossref picture}{\pgfkeysalso {baseline,yshift=0.3em}}\pgfplots@show@small@legendplots {color={magenta},solid={\pgfkeysnovalue },line width={2.0pt}}{}}\ifpgfpicture \scope [/pgfplots/every crossref picture]\pgfplots@draw@image \endscope \else \expandafter \ifx \csname tikzappendtofigurename\endcsname \relax \else \begingroup \tikzappendtofigurename {_crossref}\fi \tikz [/pgfplots/every crossref picture]{\pgfplots@draw@image }\expandafter \ifx \csname tikzappendtofigurename\endcsname \relax \else \endgroup \fi \fi \endgroup }
\expandafter \gdef \csname pgfplots@labelstyle@fig:static_state_meas_noise_0\endcsname {color={blue},solid={\pgfkeysnovalue }}
\expandafter \gdef \csname pgfplots@show@ref@fig:static_state_meas_noise_0\endcsname {\begingroup \def \pgfplots@draw@image {\def \tikz@plot@handler {\def \pgf@plotstreamstart {\global \let \pgf@plotstreampoint =\pgf@plot@line@handler \global \let \pgf@plotstreamspecial =\pgfutil@gobble \global \let \pgf@plotstreamend =\relax }\begingroup \escapechar =-1 \edef \pgfplotsplothandlername {\string \pgfplothandlerlineto }\pgfmath@smuggleone \pgfplotsplothandlername \endgroup \def \pgfplotsplothandlerLUAfactory {function(axis, pointmetainputhandler) return pgfplots.GenericPlothandler.new("\pgfplotsplothandlername ", axis,pointmetainputhandler) end}\def \pgfplotsplothandlerLUAvisualizerfactory {pgfplots.defaultPlotVisualizerFactory}}\pgfkeysdef {/pgfplots/legend image code}{\draw [/pgfplots/mesh=false,bar width=3pt,bar shift=0pt,mark repeat=2,mark phase=2,] plot coordinates { (0cm,0cm) (0.3cm,0cm) (0.6cm,0cm)};}\pgfkeysdef {/pgfplots/every legend image post}{}\pgfkeyssetvalue {/pgfplots/mark list fill}{.!80!black}\pgfkeysdef {/pgfplots/every crossref picture}{\pgfkeysalso {baseline,yshift=0.3em}}\pgfplots@show@small@legendplots {color={blue},solid={\pgfkeysnovalue }}{}}\ifpgfpicture \scope [/pgfplots/every crossref picture]\pgfplots@draw@image \endscope \else \expandafter \ifx \csname tikzappendtofigurename\endcsname \relax \else \begingroup \tikzappendtofigurename {_crossref}\fi \tikz [/pgfplots/every crossref picture]{\pgfplots@draw@image }\expandafter \ifx \csname tikzappendtofigurename\endcsname \relax \else \endgroup \fi \fi \endgroup }
\expandafter \gdef \csname pgfplots@labelstyle@fig:static_state_meas_noise_1\endcsname {color={blue},solid={\pgfkeysnovalue }}
\expandafter \gdef \csname pgfplots@show@ref@fig:static_state_meas_noise_1\endcsname {\begingroup \def \pgfplots@draw@image {\def \tikz@plot@handler {\def \pgf@plotstreamstart {\global \let \pgf@plotstreampoint =\pgf@plot@line@handler \global \let \pgf@plotstreamspecial =\pgfutil@gobble \global \let \pgf@plotstreamend =\relax }\begingroup \escapechar =-1 \edef \pgfplotsplothandlername {\string \pgfplothandlerlineto }\pgfmath@smuggleone \pgfplotsplothandlername \endgroup \def \pgfplotsplothandlerLUAfactory {function(axis, pointmetainputhandler) return pgfplots.GenericPlothandler.new("\pgfplotsplothandlername ", axis,pointmetainputhandler) end}\def \pgfplotsplothandlerLUAvisualizerfactory {pgfplots.defaultPlotVisualizerFactory}}\pgfkeysdef {/pgfplots/legend image code}{\draw [/pgfplots/mesh=false,bar width=3pt,bar shift=0pt,mark repeat=2,mark phase=2,] plot coordinates { (0cm,0cm) (0.3cm,0cm) (0.6cm,0cm)};}\pgfkeysdef {/pgfplots/every legend image post}{}\pgfkeyssetvalue {/pgfplots/mark list fill}{.!80!black}\pgfkeysdef {/pgfplots/every crossref picture}{\pgfkeysalso {baseline,yshift=0.3em}}\pgfplots@show@small@legendplots {color={blue},solid={\pgfkeysnovalue }}{}}\ifpgfpicture \scope [/pgfplots/every crossref picture]\pgfplots@draw@image \endscope \else \expandafter \ifx \csname tikzappendtofigurename\endcsname \relax \else \begingroup \tikzappendtofigurename {_crossref}\fi \tikz [/pgfplots/every crossref picture]{\pgfplots@draw@image }\expandafter \ifx \csname tikzappendtofigurename\endcsname \relax \else \endgroup \fi \fi \endgroup }
\expandafter \gdef \csname pgfplots@legend@to@name@onerun_legend\endcsname {\begingroup \def \pgfplots@legend@to@name {\pgfkeysdef {/pgfplots/every axis legend}{\pgfkeysalso {cells={anchor=center},inner xsep={3pt},inner ysep={2pt},nodes={inner sep=2pt,text depth=0.15em},anchor={north east},shape={rectangle},fill={white},draw={black},at={(0.98,0.98)},font={\small },column sep={1pt}}}\pgfkeysdef {/pgfplots/every legend image post}{}\def \numplots {5}\def \plotnum {0}\def \plotnumofactualtype {0}\matrix [/pgfplots/every axis legend]{\begingroup \def \pgfplots@draw@image {\def \tikz@plot@handler {\def \pgf@plotstreamstart {\global \let \pgf@plotstreampoint =\pgf@plot@line@handler \global \let \pgf@plotstreamspecial =\pgfutil@gobble \global \let \pgf@plotstreamend =\relax }\begingroup \escapechar =-1 \edef \pgfplotsplothandlername {\string \pgfplothandlerlineto }\pgfmath@smuggleone \pgfplotsplothandlername \endgroup \def \pgfplotsplothandlerLUAfactory {function(axis, pointmetainputhandler) return pgfplots.GenericPlothandler.new("\pgfplotsplothandlername ", axis,pointmetainputhandler) end}\def \pgfplotsplothandlerLUAvisualizerfactory {pgfplots.defaultPlotVisualizerFactory}}\pgfkeysdef {/pgfplots/legend image code}{\draw [/pgfplots/mesh=false,bar width=3pt,bar shift=0pt,mark repeat=2,mark phase=2,] plot coordinates { (0cm,0cm) (0.3cm,0cm) (0.6cm,0cm)};}\pgfkeysdef {/pgfplots/every legend image post}{}\pgfkeyssetvalue {/pgfplots/mark list fill}{.!80!black}\pgfplots@show@small@legendplots {color={black},only marks={},mark={*},mark options={solid}}{}}\ifpgfpicture \pgfplots@draw@image \else \expandafter \ifx \csname tikzappendtofigurename\endcsname \relax \else \begingroup \tikzappendtofigurename {_crossref}\fi \tikz []{\pgfplots@draw@image }\expandafter \ifx \csname tikzappendtofigurename\endcsname \relax \else \endgroup \fi \fi \endgroup \pgfmatrixnextcell \node []{Measurement};\pgfmatrixnextcell \begingroup \def \pgfplots@draw@image {\def \tikz@plot@handler {\def \pgf@plotstreamstart {\global \let \pgf@plotstreampoint =\pgf@plot@line@handler \global \let \pgf@plotstreamspecial =\pgfutil@gobble \global \let \pgf@plotstreamend =\relax }\begingroup \escapechar =-1 \edef \pgfplotsplothandlername {\string \pgfplothandlerlineto }\pgfmath@smuggleone \pgfplotsplothandlername \endgroup \def \pgfplotsplothandlerLUAfactory {function(axis, pointmetainputhandler) return pgfplots.GenericPlothandler.new("\pgfplotsplothandlername ", axis,pointmetainputhandler) end}\def \pgfplotsplothandlerLUAvisualizerfactory {pgfplots.defaultPlotVisualizerFactory}}\pgfkeysdef {/pgfplots/legend image code}{\draw [/pgfplots/mesh=false,bar width=3pt,bar shift=0pt,mark repeat=2,mark phase=2,] plot coordinates { (0cm,0cm) (0.3cm,0cm) (0.6cm,0cm)};}\pgfkeysdef {/pgfplots/every legend image post}{}\pgfkeyssetvalue {/pgfplots/mark list fill}{.!80!black}\pgfplots@show@small@legendplots {color={black},solid={\pgfkeysnovalue },line width={0.5pt}}{}}\ifpgfpicture \pgfplots@draw@image \else \expandafter \ifx \csname tikzappendtofigurename\endcsname \relax \else \begingroup \tikzappendtofigurename {_crossref}\fi \tikz []{\pgfplots@draw@image }\expandafter \ifx \csname tikzappendtofigurename\endcsname \relax \else \endgroup \fi \fi \endgroup \pgfmatrixnextcell \node []{Ground truth};\pgfmatrixnextcell \begingroup \def \pgfplots@draw@image {\def \tikz@plot@handler {\def \pgf@plotstreamstart {\global \let \pgf@plotstreampoint =\pgf@plot@line@handler \global \let \pgf@plotstreamspecial =\pgfutil@gobble \global \let \pgf@plotstreamend =\relax }\begingroup \escapechar =-1 \edef \pgfplotsplothandlername {\string \pgfplothandlerlineto }\pgfmath@smuggleone \pgfplotsplothandlername \endgroup \def \pgfplotsplothandlerLUAfactory {function(axis, pointmetainputhandler) return pgfplots.GenericPlothandler.new("\pgfplotsplothandlername ", axis,pointmetainputhandler) end}\def \pgfplotsplothandlerLUAvisualizerfactory {pgfplots.defaultPlotVisualizerFactory}}\pgfkeysdef {/pgfplots/legend image code}{\draw [/pgfplots/mesh=false,bar width=3pt,bar shift=0pt,mark repeat=2,mark phase=2,] plot coordinates { (0cm,0cm) (0.3cm,0cm) (0.6cm,0cm)};}\pgfkeysdef {/pgfplots/every legend image post}{}\pgfkeyssetvalue {/pgfplots/mark list fill}{.!80!black}\pgfplots@show@small@legendplots {color={green},solid={\pgfkeysnovalue },line width={0.5pt}}{}}\ifpgfpicture \pgfplots@draw@image \else \expandafter \ifx \csname tikzappendtofigurename\endcsname \relax \else \begingroup \tikzappendtofigurename {_crossref}\fi \tikz []{\pgfplots@draw@image }\expandafter \ifx \csname tikzappendtofigurename\endcsname \relax \else \endgroup \fi \fi \endgroup \pgfmatrixnextcell \node []{Feldmann \etal };\pgfmatrixnextcell \begingroup \def \pgfplots@draw@image {\def \tikz@plot@handler {\def \pgf@plotstreamstart {\global \let \pgf@plotstreampoint =\pgf@plot@line@handler \global \let \pgf@plotstreamspecial =\pgfutil@gobble \global \let \pgf@plotstreamend =\relax }\begingroup \escapechar =-1 \edef \pgfplotsplothandlername {\string \pgfplothandlerlineto }\pgfmath@smuggleone \pgfplotsplothandlername \endgroup \def \pgfplotsplothandlerLUAfactory {function(axis, pointmetainputhandler) return pgfplots.GenericPlothandler.new("\pgfplotsplothandlername ", axis,pointmetainputhandler) end}\def \pgfplotsplothandlerLUAvisualizerfactory {pgfplots.defaultPlotVisualizerFactory}}\pgfkeysdef {/pgfplots/legend image code}{\draw [/pgfplots/mesh=false,bar width=3pt,bar shift=0pt,mark repeat=2,mark phase=2,] plot coordinates { (0cm,0cm) (0.3cm,0cm) (0.6cm,0cm)};}\pgfkeysdef {/pgfplots/every legend image post}{}\pgfkeyssetvalue {/pgfplots/mark list fill}{.!80!black}\pgfplots@show@small@legendplots {color={blue},solid={\pgfkeysnovalue },line width={0.5pt}}{}}\ifpgfpicture \pgfplots@draw@image \else \expandafter \ifx \csname tikzappendtofigurename\endcsname \relax \else \begingroup \tikzappendtofigurename {_crossref}\fi \tikz []{\pgfplots@draw@image }\expandafter \ifx \csname tikzappendtofigurename\endcsname \relax \else \endgroup \fi \fi \endgroup \pgfmatrixnextcell \node []{Lan \etal };\pgfmatrixnextcell \begingroup \def \pgfplots@draw@image {\def \tikz@plot@handler {\def \pgf@plotstreamstart {\global \let \pgf@plotstreampoint =\pgf@plot@line@handler \global \let \pgf@plotstreamspecial =\pgfutil@gobble \global \let \pgf@plotstreamend =\relax }\begingroup \escapechar =-1 \edef \pgfplotsplothandlername {\string \pgfplothandlerlineto }\pgfmath@smuggleone \pgfplotsplothandlername \endgroup \def \pgfplotsplothandlerLUAfactory {function(axis, pointmetainputhandler) return pgfplots.GenericPlothandler.new("\pgfplotsplothandlername ", axis,pointmetainputhandler) end}\def \pgfplotsplothandlerLUAvisualizerfactory {pgfplots.defaultPlotVisualizerFactory}}\pgfkeysdef {/pgfplots/legend image code}{\draw [/pgfplots/mesh=false,bar width=3pt,bar shift=0pt,mark repeat=2,mark phase=2,] plot coordinates { (0cm,0cm) (0.3cm,0cm) (0.6cm,0cm)};}\pgfkeysdef {/pgfplots/every legend image post}{}\pgfkeyssetvalue {/pgfplots/mark list fill}{.!80!black}\pgfplots@show@small@legendplots {color={red},solid={\pgfkeysnovalue },line width={0.5pt}}{}}\ifpgfpicture \pgfplots@draw@image \else \expandafter \ifx \csname tikzappendtofigurename\endcsname \relax \else \begingroup \tikzappendtofigurename {_crossref}\fi \tikz []{\pgfplots@draw@image }\expandafter \ifx \csname tikzappendtofigurename\endcsname \relax \else \endgroup \fi \fi \endgroup \pgfmatrixnextcell \node []{MEM};\\};}\ifpgfpicture \pgfplots@legend@to@name \else \expandafter \ifx \csname tikzappendtofigurename\endcsname \relax \else \begingroup \tikzappendtofigurename {_crossref}\fi \tikz [/pgfplots/every legend to name picture/.try]{\pgfplots@legend@to@name }\expandafter \ifx \csname tikzappendtofigurename\endcsname \relax \else \endgroup \fi \fi \endgroup }
\newlabel{fig:static_ellipse_result}{{}{1}}
\newlabel{onerun_legend}{{\expandafter\protect\csname pgfplots@legend@to@name@onerun_legend\endcsname}{1}}
\@writefile{lof}{\contentsline {figure}{\numberline {2}{\ignorespaces The measurements, trajectory, and one exemplar run of the three estimators.}}{1}}
\newlabel{fig:snippet}{{2}{1}}
\newlabel{fig:static_meas_meas_noise_0}{{\expandafter\protect\csname pgfplots@show@ref@fig:static_meas_meas_noise_0\endcsname}{2}}
\newlabel{fig:static_meas_meas_noise_2}{{\expandafter\protect\csname pgfplots@show@ref@fig:static_meas_meas_noise_2\endcsname}{2}}
\newlabel{fig:static_state_meas_noise_0}{{\expandafter\protect\csname pgfplots@show@ref@fig:static_state_meas_noise_0\endcsname}{2}}
\newlabel{fig:static_state_meas_noise_1}{{\expandafter\protect\csname pgfplots@show@ref@fig:static_state_meas_noise_1\endcsname}{2}}
\@writefile{lof}{\contentsline {figure}{\numberline {1}{\ignorespaces Simulation on static ellipse. The first row figures show the ground truth and measurements. The second row give example estimates after $100$ measurements update. The last row plot mean $\mathbf  {d}$ for $100$ runs.}}{2}}
